{
  "default": {
    "host": "localhost",
    "port": 27017,
    "username": "klaus",
    "password": "klaus"
  },

  "development": {
    "host": "#{process.env.HOST}",
    "db": "#{process.env.DATABASE}",
    "port": "#{process.env.DB_PORT}",
    "username": "#{process.env.UNAME}",
    "password": "#{process.env.PASSWD}",
    "authDB": "#{process.env.AUTH_DB}"
  },

  "production": {
    "host": "#{process.env.HOST}",
    "db": "#{process.env.DATABASE}",
    "port": "#{process.env.DB_PORT}",
    "username": "#{process.env.UNAME}",
    "password": "#{process.env.PASSWD}",
    "authDB": "#{process.env.AUTH_DB}"
  }
}
